<?xml version="1.0" encoding="iso-8859-1"?>
<!-- Generator: Adobe Illustrator 13.0.2, SVG Export Plug-In . SVG Version: 6.00 Build 14948)  -->
<!DOCTYPE svg PUBLIC "-//W3C//DTD SVG 1.1//EN" "http://www.w3.org/Graphics/SVG/1.1/DTD/svg11.dtd">
<svg version="1.1" id="Layer_1_xA0_Image_1_" xmlns="http://www.w3.org/2000/svg" xmlns:xlink="http://www.w3.org/1999/xlink"
	 x="0px" y="0px" width="241.984px" height="437.098px" viewBox="0 0 241.984 437.098"
	 style="enable-background:new 0 0 241.984 437.098;" xml:space="preserve">
<g>
	<path style="fill-rule:evenodd;clip-rule:evenodd;" d="M43.716,6.763c-0.422-0.058-0.547-0.413-0.48-0.96
		c-0.676,0.333-1.592-0.396-2.64-0.48c-0.847-0.068-1.342,0.365-2.4,0c-1.206-0.415-2.542-1.85-3.84-2.16
		c-1.31-0.313-3.214-0.344-2.88-2.16c3.283-0.367,6.821-1.914,9.36-0.24C42.273,1.71,43.844,4.01,43.716,6.763z"/>
	<path style="fill-rule:evenodd;clip-rule:evenodd;" d="M51.156,8.443c0.65,0.654,0.597-0.621,1.44-0.48
		c1.076,0.524,2.156,1.043,2.16,2.64c-1.179-0.341-1.027-2.013-2.88-1.68c-0.613,0.027-0.476,0.804-0.48,1.44
		c-1.478,1.962-3.623,3.257-5.76,4.56c-0.655,0.175-0.483-0.477-0.96-0.48c-0.967,0.233-1.352,1.048-1.92,1.68
		c1.441,0.113,3.978-0.878,5.52,0c0.945,0.538,1.495,1.378,2.4,1.68c0.626,0.209,1.385-0.072,2.16,0.24
		c2.075,0.835,3.05,2.975,4.32,4.08c-0.27-3.899-5.579-4.815-8.64-6.72c0.138-1.112,2.578-4.338,5.04-3.84
		c0.596,0.12,1.748,0.668,2.16,0.96c2.318,1.641,2.775,4.632,2.88,7.68c0.03,0.88,0.987,2.274,0,3.36
		c-3.041,1.418-4.349-0.006-6.72-1.2c-2.304-1.16-4.456-1.594-4.8-4.32c0.141-0.5,0.504-0.776,0.72-1.2
		c-4.592-2.1-6.601,2.05-8.88,4.56c-2.773,3.054-6.304,3.469-9.6,5.52c0.925,0.595,3.233-0.193,3.36,1.2
		c-2.525-1.045-4.242,0.23-6.24,0.96c-0.823,0.217-0.486,1.594-1.68,1.44c0.573-1.828,2.144-2.657,2.88-4.32
		c0.278-1.203-1.527-1.178-0.72-2.16c1.477,0.031,1.549,1.681,1.2,2.88c0.838-0.042,1.208-0.552,1.44-1.2
		c4.387-1.853,8.461-4.019,10.8-7.92c0.053-1.589,0.604-3.404-0.24-4.56c-1.425-0.065-1.854,0.866-2.88,1.2
		c-1.873,0.113-3.246-0.274-4.8-0.48c-0.754-1.201-2.168-2.903-1.68-4.56c1.133-0.162,0.449,0.966,0.72,1.44
		c0.56,0.977,1.339,0.907,2.4,1.44c0.888,0.168,0.599-0.841,0.96-1.2c0.68,0.04,1,0.44,1.68,0.48c-0.228-1.157,0.002-3.341-0.48-4.8
		c0.859,0.101,1.155,0.765,1.2,1.68c2.074,0.886,2.652,3.267,4.32,4.56c0.047,0.927,0.008,1.769-0.24,2.4
		c0.853,0.555,0.993-1.308,1.68-1.68c-2.047-3.196,0.846-5.68,3.6-6.24c1.524,0.323,1.687,2.081,0.72,3.12
		c0.342,0.556,1.302-0.279,1.68-0.48c0.356-1.956-0.608-2.591-1.44-3.36c-1.102-0.221-1.16,0.601-2.16,0.48
		c0.405-1.237,1.333-0.46,2.16-1.2c1.557,0.603,1.835,2.484,2.64,3.84c0.923-3.296-3.435-5.707-5.76-3.12
		C44.982,3.088,51.742,4.719,51.156,8.443z M44.916,10.123c1.226,0.026,2.599,0.199,2.4-1.2
		C46.425,8.396,44.469,8.547,44.916,10.123z"/>
	<path style="fill-rule:evenodd;clip-rule:evenodd;" d="M53.556,9.883c0.173,1.425-1.374,1.425-1.2,0
		C52.671,9.575,53.241,9.575,53.556,9.883z"/>
	<path style="fill-rule:evenodd;clip-rule:evenodd;" d="M46.836,17.803c-0.338,0.862-1.032,1.368-2.4,1.2
		c-0.138-0.502-0.595-0.685-0.48-1.44C44.677,17.077,46.035,17.613,46.836,17.803z"/>
	<path style="fill-rule:evenodd;clip-rule:evenodd;" d="M38.676,30.763c-0.454,0.23-1.367-0.101-1.68-1.2c0.4,0,0.8,0,1.2,0
		c-0.201-1.56-3.566,0.046-4.08-1.2c0.596-1.073,2.912-1.132,3.84-0.96c3.767,0.699,2.774,7.04,4.56,9.84
		c-0.264,0.776-0.648,1.433-0.96,2.16c-4.138-0.662-9.081-0.52-10.56-3.84c0.276-1.637-0.424-2.296-0.48-3.6
		c0.697-1.25,0.827-2.223,1.2-3.36c4.453,1.387,4.413,7.267,8.88,8.64c-0.791-1.689-2.248-2.712-2.88-4.56
		C38.501,31.983,37.96,31.448,38.676,30.763z"/>
	<path style="fill-rule:evenodd;clip-rule:evenodd;" d="M23.556,31.723c0.279-0.039,0.427,0.053,0.48,0.24
		c-1.164,1.875-1.689,4.391-3.6,5.52C20.58,34.667,22.133,33.26,23.556,31.723z"/>
	<path style="fill-rule:evenodd;clip-rule:evenodd;" d="M19.956,38.203c0.32,0,0.64,0,0.96,0c-0.019,1.181-0.471,1.93-0.72,2.88
		C19.267,40.424,19.983,39.058,19.956,38.203z"/>
	<path style="fill-rule:evenodd;clip-rule:evenodd;" d="M20.436,45.403c-1.041,0.319-2.393,0.327-1.92,2.16
		C16.975,46.615,19.014,44.187,20.436,45.403z"/>
	<path style="fill-rule:evenodd;clip-rule:evenodd;" d="M21.396,46.124c-0.164,0.956-1.203,1.037-1.92,1.44
		C19.486,46.454,20.158,46.005,21.396,46.124z"/>
	<path style="fill-rule:evenodd;clip-rule:evenodd;" d="M21.156,50.443c0.354,0.759-1.379,1.154-1.2,0.24
		C20.235,50.482,20.6,50.367,21.156,50.443z"/>
	<path style="fill-rule:evenodd;clip-rule:evenodd;" d="M24.036,51.883c-0.075,0.805-1.087,0.672-1.92,0.72
		C22.211,51.818,23.292,52.02,24.036,51.883z"/>
	<path style="fill-rule:evenodd;clip-rule:evenodd;" d="M12.756,52.363c0.919,0.581-0.925,1.957-0.96,3.12
		c3.613-1.036,8.893,0.66,12,0.24c-1.154,1.13-3.674,0.608-5.52,0.48c0.423,1.177,2.299,0.902,3.36,1.44
		c-0.417,1.304-2.451,0.11-3.6,0c-0.006,0.809,1.741,0.588,0.96,1.44c-1.371-0.379-2.078-0.729-3.36-0.72
		c0.565,2.146,3.347,4.02,6.72,3.36c2.742-0.536,3.899-3.646,4.08-6c-0.398-0.598-2.137,0.664-2.16-0.72
		c0.636,0.359,2.004-0.334,2.64,0.48c0.313,4.248-2.749,7.699-6.96,7.2c-2.352-0.279-3.591-2.12-5.28-3.36
		c-0.342-1.498-1.124-2.556-2.64-2.88c-0.935,0.242-0.037,0.826-0.24,1.68c-1.767,5.746-2.737,9.83-1.2,15.12
		c0.119,0.408,0.6,0.767,0.72,1.2c0.102,0.365-0.126,0.844,0,1.2c0.594,1.667,1.792,3.291,2.16,5.04c0.083,0.398-0.12,1.032,0,1.44
		c0.252,0.857,0.9,1.499,1.2,2.4c0.182,0.547,0.047,1.349,0.24,1.92c0.611,1.806,2.6,3.742,1.44,5.76
		c-1.061-0.298-0.297-0.845-0.48-1.44c-0.356-1.161-1.554-2.22-1.92-3.36c-0.253-0.789,0.016-1.593-0.24-2.4
		c-0.262-0.827-0.893-1.578-1.2-2.4c-0.665-1.78-0.942-3.519-1.68-5.28c-0.308-0.735-0.971-1.456-1.2-2.16
		c-0.331-1.018-0.083-1.85-0.24-2.88c-0.187-1.227-0.935-2.548-0.96-3.84c-0.012-0.646,0.391-1.087,0.48-1.68
		c0.142-0.943-0.098-1.884,0-2.88C9.33,59.683,10.889,55.632,12.756,52.363z"/>
	<path style="fill-rule:evenodd;clip-rule:evenodd;" d="M14.436,52.363c0.45,0.51,0.95,0.97,1.2,1.68
		c-0.815-0.065-1.946,0.186-2.4-0.24C13.318,53.005,14.145,52.953,14.436,52.363z"/>
	<path style="fill-rule:evenodd;clip-rule:evenodd;" d="M25.476,53.803c-0.238,0.625-1.878,0.642-2.4,0.24
		C23.926,53.569,24.677,53.572,25.476,53.803z"/>
	<path style="fill-rule:evenodd;clip-rule:evenodd;" d="M22.596,58.843c0.939-0.139,1.394,0.207,1.92,0.48
		C24.218,59.76,22.292,59.804,22.596,58.843z"/>
	<path style="fill-rule:evenodd;clip-rule:evenodd;" d="M29.316,85.723c-0.803,0.797-1.59,1.61-2.64,2.16
		c1.163,0.971,3.494,2.211,5.04,0.72c0.616,1.708-0.867,3.255-1.68,4.32c-0.628,0.332-1.795,0.125-1.92,0.96
		c1.105,1.112,4.476,2.35,5.04,0c3.142,1.566-0.665,4.991-2.88,4.8c-2.245-0.193-2.991-2.546-3.36-4.8
		c-1.219-0.13-0.004,0.85-0.96,0.72c-0.711-0.889-1.202-1.999-1.68-3.12C26.446,90.177,24.828,83.923,29.316,85.723z"/>
	<path style="fill-rule:evenodd;clip-rule:evenodd;" d="M28.356,87.644c0.865,0.335,2.716-0.316,2.4,1.2
		C29.825,88.575,28.354,88.845,28.356,87.644z"/>
	<path style="fill-rule:evenodd;clip-rule:evenodd;" d="M32.436,93.163c0.203,1.115-2.354,1.969-2.16,0.24
		C31.15,93.478,31.838,93.365,32.436,93.163z"/>
	<path style="fill-rule:evenodd;clip-rule:evenodd;" d="M19.236,100.604c-0.199,1.721-2.065,1.775-2.88,2.88
		c-0.135,0.584-0.206,1.234-0.96,1.2c-0.097-0.762-1.642-2.327,0-2.64c0,0.48,0,0.96,0,1.44
		C16.26,102.107,17.389,100.996,19.236,100.604z"/>
	<path style="fill-rule:evenodd;clip-rule:evenodd;" d="M15.876,107.323c0.279-0.039,0.427,0.053,0.48,0.24
		c-0.694,7.655-0.082,15.487,0.24,22.8c0.87,0.23,0.244-1.036,0.72-1.2c1.504,0.145,1.547-1.172,3.12-0.96
		c-0.479,0.961-1.37,1.51-2.64,1.68c0.13,1.49-0.91,1.81-0.96,3.12c-0.685-1.05-2.11-2.727-2.16-4.56
		c-0.021-0.786,0.566-1.317,0.72-2.16C16.532,120.047,12.539,111.767,15.876,107.323z"/>
	<path style="fill-rule:evenodd;clip-rule:evenodd;" d="M13.476,117.163c1.301,0.299,1.192,2.008,1.2,3.6
		c-1.164-0.117-1.137-1.423-2.16-1.68C12.674,118.281,13.262,117.91,13.476,117.163z"/>
	<path style="fill-rule:evenodd;clip-rule:evenodd;" d="M17.796,117.644c2.073,1.246,2.364,5.423,2.16,8.16
		c-2.76,0.143-2.629-3.07-2.64-5.52c-0.004-1.02-0.901-2.217,0-2.64C17.476,117.644,17.636,117.644,17.796,117.644z"/>
	<path style="fill-rule:evenodd;clip-rule:evenodd;" d="M20.196,118.124c0.24,0,0.48,0,0.72,0c0.787,1.779,1.607,2.786,1.68,4.56
		c0.061,1.469-0.449,2.963,0.72,4.08c0.456,0.436,1.439,0.591,2.16,1.2c0.384,0.324,0.728,0.99,1.2,1.44
		c1.144,1.091,1.243,1.334,2.16,2.88c0.597,1.006,1.739,1.873,0.48,3.84c-3.11-1.77-3.896-5.865-7.44-7.2
		c-0.15-1.507,0.225-2.594-1.44-2.88c0.146-0.735,0.51-1.25,0.72-1.92C21.649,121.478,19.266,119.665,20.196,118.124z"/>
	<path style="fill-rule:evenodd;clip-rule:evenodd;" d="M20.916,129.883c0.862,0.337,1.594,0.806,1.68,1.92
		c-0.578-0.098-0.522,0.438-1.2,0.24C21.158,131.401,20.901,130.778,20.916,129.883z"/>
	<path style="fill-rule:evenodd;clip-rule:evenodd;" d="M17.076,133.723c0.279-0.039,0.427,0.053,0.48,0.24
		c0.297,2.97,1.15,6.193,0.24,8.64C16.775,140.567,16.497,136.565,17.076,133.723z"/>
	<path style="fill-rule:evenodd;clip-rule:evenodd;" d="M24.036,140.923c0.833,1.167,1.315,2.685,2.64,3.36
		c0.034,1.714,0.158,3.518-0.72,4.32c1.015,1.544,2.404,2.716,1.92,5.76c-1.785,2.056-2.773,4.906-5.04,6.48
		c-1.117-1.148-0.254-1.902-1.2-2.64c0.914-1.966,1.222-4.538,2.4-6.24C24.143,147.03,22.97,144.896,24.036,140.923z"/>
	<path style="fill-rule:evenodd;clip-rule:evenodd;" d="M17.556,143.083c1.068-0.037,0.144,0.973,0,1.2
		c0.096,0.624,0.716,0.724,0.72,1.44c-1.129,2.65-0.703,5.409-1.2,7.92c-0.136,0.685-0.338,1.542-0.48,2.88
		c-0.095,0.893-0.704,1.713-0.96,2.64c-0.373,1.349-0.627,2.059-1.2,3.36c-1.017,2.309-1.657,5.97-0.24,9.12
		c-2.297,0.35-1.233-4.668-2.16-6.48c0.394-0.726,0.615-1.625,1.2-2.16c0.119-3.63,3.192-6.36,2.16-9.6
		c0.493-0.067,0.479-0.641,0.72-0.96c0.01-1.972-0.161-3.487-0.24-4.8c0.776-0.958,0.415-1.592,0.72-2.88
		C16.602,143.889,17.846,144.253,17.556,143.083z"/>
	<path style="fill-rule:evenodd;clip-rule:evenodd;" d="M20.196,157.723c-0.461,1.299-1.489,2.032-2.4,2.88
		c-1.242,2.786-3.362,6.499-1.92,9.84c1.436-0.528,2.719-1.868,4.56-2.16c0.96-0.152,1.955,0.315,2.88,0.24
		c1.804-0.147,2.807-1.363,4.32-1.68c1.094,0.826,2.009,1.831,1.68,4.08c0.203,1.064,2.036,1.979,2.64,3.6
		c0.235,0.631,0.003,1.572,0.24,2.4c0.421,1.477,1.242,2.149,1.2,3.12c-0.042,0.983-0.604,2.067-1.44,2.64
		c-0.067,0.956,1.402,2.083,0.24,2.64c-0.881-0.799-1.286-2.075-1.92-3.12c1.072-3.079,1.607-5.815,0-8.16
		c-0.353-0.515-0.879-0.647-1.44-1.2c-0.432-0.426-0.632-1.191-0.96-1.44c-0.235-0.178-0.857-0.229-1.2-0.48
		c-3.369-2.469-9.939-2.899-10.56,3.36c-1.414-0.375-0.501-1.636-0.72-2.64c-0.26-1.195-1.201-2.347-1.2-3.36
		c0.001-1.064,0.916-1.938,1.2-2.88c0.139-0.461-0.084-1.021,0-1.44c0.522-2.604,2.397-4.843,3.84-6.48
		C19.738,157.382,19.872,157.648,20.196,157.723z"/>
	<path style="fill-rule:evenodd;clip-rule:evenodd;" d="M15.876,176.443c0.315,0.085,0.377,0.422,0.72,0.48
		c0.269,3.011,2.069,4.491,3.12,6.72c-1.263-0.369-3.37-3.072-4.08-4.8C15.31,178.05,15.242,177.013,15.876,176.443z"/>
	<path style="fill-rule:evenodd;clip-rule:evenodd;" d="M37.716,200.683c-1.564-0.042-1.521-1.09-2.4-1.92
		c-1.966-1.854-5.351-4.168-7.92-6.24c-2.651-2.138-7.046-5.57-7.68-8.64c0.858-0.477,1.109,0.682,1.68,1.44
		c2.837,3.772,7.898,6.898,11.76,10.08C34.852,196.8,36.942,198.225,37.716,200.683z"/>
	<path style="fill-rule:evenodd;clip-rule:evenodd;" d="M38.436,185.803c0.642,2.158,3.538,2.062,4.32,4.08
		c-0.527,1.153-0.673,2.687-1.44,3.6c0.396,0.644,1.018,1.062,1.44,1.68c-0.712,1.087,0.635,2.742-0.48,3.36
		c-1.067-0.053-0.644-1.596-1.44-1.92c-0.677-0.603-1.317-1.243-1.92-1.92c1.023-2.079-1.956-4.626-1.68-6.72
		c-0.577-0.303-1.452-0.309-1.92-0.72c0.155-1.354-0.69-1.71-0.72-2.88C35.747,184.078,36.263,186.329,38.436,185.803z"/>
	<path style="fill-rule:evenodd;clip-rule:evenodd;" d="M75.156,184.843c-0.035,1.085-1.036,1.205-1.68,1.68
		c-0.062,2.098-1.655,2.665-2.4,4.08c-1.253-0.767-0.128-3.333-0.24-4.8C72.364,185.571,73.153,184.601,75.156,184.843z"/>
	<path style="fill-rule:evenodd;clip-rule:evenodd;" d="M67.956,186.283c1.18-0.691,1.979,1.055,2.4,1.92
		C69.525,188.547,68.882,186.643,67.956,186.283z"/>
	<path style="fill-rule:evenodd;clip-rule:evenodd;" d="M74.676,186.043c1.371,1.72-0.16,4.4-1.92,4.56
		C73.642,189.329,74.57,188.098,74.676,186.043z"/>
	<path style="fill-rule:evenodd;clip-rule:evenodd;" d="M71.076,193.483c0.388-0.068,0.413,0.227,0.72,0.24
		c-0.049,2.406-0.974,5.865-1.2,8.88c-0.194,0.914,0.703,0.736,0.72,1.44c-0.455,2.985-1.661,5.219-2.88,7.44
		c-0.991-0.742-0.275-3.137,0.24-4.32c0.41-0.941,1.447-1.545,1.44-2.4C69.212,201.317,70.402,196.841,71.076,193.483z"/>
	<path style="fill-rule:evenodd;clip-rule:evenodd;" d="M52.836,196.124c0.503,0.586,0.343,0.511,0.24,1.44
		c1.369,0.006,1.45-0.185,2.64,0c2.153,1.767,6.314,1.525,7.2,4.56c-1.021,0.183-2.648-0.571-3.84-0.96
		c-5.29,2.156-7.939-1.76-11.28-3.6c-2.832,0.688-4.706,2.333-6,4.56c-0.645-1.451,1.278-2.398,1.68-3.6
		c1.69-0.39,2.519-1.642,4.56-1.68C48.76,195.653,51.411,195.198,52.836,196.124z"/>
	<path style="fill-rule:evenodd;clip-rule:evenodd;" d="M40.116,197.323c0.279-0.039,0.427,0.053,0.48,0.24
		c-0.226,1.614-0.605,3.075-1.2,4.32C38.3,200.796,40.03,198.786,40.116,197.323z"/>
	<path style="fill-rule:evenodd;clip-rule:evenodd;" d="M28.596,202.604c0.985-0.11-0.098,0.513,0.24,1.2
		c0.276,0.924,1.044,1.356,1.44,2.16c-0.033,0.447-0.158,0.802-0.48,0.96c0.818,0.782,1.934,1.266,2.16,2.64
		c1.993,0.007,3.32,0.68,3.84,2.16c1.651-1.211,3.14,0.497,3.84,1.68c-1.44-0.695-2.021-2.22-4.32-1.44
		c-0.56-1.401-1.461-2.187-3.36-1.68c-0.882-1.118-1.636-2.364-2.88-3.12c-0.192-0.832,0.357-0.922,0.24-1.68
		c-1.066-0.694-1.943-1.577-3.84-1.44c-0.576,0.992-2.167,2.127-3.12,0.72c0.347-1.04,0.536,0.253,1.44,0
		c0.64-0.4,0.783-1.297,1.68-1.44c1.065-0.025,1.409,0.671,2.64,0.48C28.472,203.599,28.632,203.199,28.596,202.604z"/>
	<path style="fill-rule:evenodd;clip-rule:evenodd;" d="M63.636,202.604c-1.125,2.264-4.805,2.831-7.44,3.84
		c-0.889,0.34-1.576,0.911-2.4,1.2c-0.471,0.165-0.997,0.013-1.44,0.24c-1.328,0.68-2.002,1.854-3.12,2.64
		c0.052,0.932-0.255,1.505-0.96,1.68c0.289-2.351,1.506-3.774,3.36-4.56c-0.039-0.281-0.438-0.203-0.72-0.24
		c0.575-0.588,0.708-0.707,1.68-0.48C56.166,205.373,60.285,204.372,63.636,202.604z"/>
	<path style="fill-rule:evenodd;clip-rule:evenodd;" d="M40.356,203.083c0.388-0.068,0.414,0.227,0.72,0.24
		c0.328,0.472,0.229,1.371,0.48,1.92c2.159,3.089,4.12,7.178,4.32,12c0.031,0.737-0.295,1.648-0.24,2.4
		c0.03,0.415,0.402,0.831,0.48,1.2c0.294,1.402,0.394,3.138,0.24,4.56c-0.079,0.73-0.591,1.518-0.72,2.4
		c-0.308,2.104,0.268,4.392-0.96,6.239c-1.682-1.335,0.217-3.893,0-6c-0.49-1.081-1.661-2.589-1.2-3.84
		c0.778,0.662,1.368,1.513,1.2,3.12c1.189-5.721-0.393-11.868-1.44-17.28C42.079,207.921,40.586,206.133,40.356,203.083z"/>
	<path style="fill-rule:evenodd;clip-rule:evenodd;" d="M83.316,204.523c-0.85,1.55-0.894,3.906-2.64,4.56
		c-0.843,0.042-0.79-0.811-1.44-0.96c-0.85-0.13-0.59,0.85-1.44,0.72c0.215,0.425,0.974,0.306,0.72,1.2
		c-1.398-0.442-3.148-0.532-5.04-0.48c0.762-0.684,2.679-0.927,3.84-0.48c0.379-0.902,1.231-1.329,1.92-1.92
		C78.87,204.686,81.68,204.209,83.316,204.523z M79.716,206.203c-0.077,0.957-0.013,1.773,0.48,2.16
		c1.138-0.542,2.145-1.215,1.92-3.12C81.156,205.403,80.472,205.839,79.716,206.203z"/>
	<path style="fill-rule:evenodd;clip-rule:evenodd;" d="M73.236,209.323c-0.904,1.736-2.125,3.155-4.08,3.84
		c0.051-1.582,2.81-2.445,3.6-4.08C73.035,209.044,73.183,209.136,73.236,209.323z"/>
	<path style="fill-rule:evenodd;clip-rule:evenodd;" d="M64.836,212.443c-2.47,0.41-5.319,0.441-6.72,1.92
		c1.322,0.197,4.484-1.11,5.76-0.96c0.664,0.428,0.976,1.068,0.96,1.68c-0.093,3.55-6.937,1.3-7.92-0.48
		c0.937-2.798,3.567-5.448,7.44-3.84C64.331,211.508,65.111,211.448,64.836,212.443z"/>
	<path style="fill-rule:evenodd;clip-rule:evenodd;" d="M67.956,213.403c0.981,0.526-0.188,2.345-0.96,2.64
		C66.961,214.808,67.471,214.118,67.956,213.403z"/>
	<path style="fill-rule:evenodd;clip-rule:evenodd;" d="M41.316,220.363c0.445,0.503-0.118,2.399,1.92,2.4
		c-0.071,0.49-0.649,0.471-0.72,0.96c-0.493-0.867-1.362-1.358-1.92-2.16C40.812,221.139,41.175,220.863,41.316,220.363z"/>
	<path style="fill-rule:evenodd;clip-rule:evenodd;" d="M55.236,221.083c2.112,1.328,4.601,2.278,4.08,6.24
		c0.056,1.073,1.83,1.407,1.2,2.4c-0.955-0.165-0.839-1.401-1.92-1.44c-1.438,0.162-2.108,1.092-3.6,1.2
		c-0.833-1.962-0.916-3.769,0.24-5.521C54.829,223.098,54.487,221.852,55.236,221.083z"/>
	<path style="fill-rule:evenodd;clip-rule:evenodd;" d="M38.916,221.803c0.728-0.008,0.598,0.842,0.72,1.44
		c1.442,0.878,2.505,2.135,3.84,3.12c-1.498,0.926-2.851-2.202-4.56-2.64C39.13,222.807,38.524,222.191,38.916,221.803z"/>
	<path style="fill-rule:evenodd;clip-rule:evenodd;" d="M63.396,223.724c0.24,0,0.48,0,0.72,0c0.515,2.141-0.138,6.005-1.68,6.96
		C61.662,228.197,62.946,225.777,63.396,223.724z"/>
	<path style="fill-rule:evenodd;clip-rule:evenodd;" d="M61.716,231.883c-0.698,2.822-2.664,4.377-4.56,6
		c-1.691-0.068-1.104-2.416-1.2-4.079C56.968,231.965,59.411,229.775,61.716,231.883z"/>
	<path style="fill-rule:evenodd;clip-rule:evenodd;" d="M46.836,235.724c-1.434,2.726-5.077,3.242-6,6.479
		c-2.004-1.654,0.718-3.818,1.2-5.28C43.333,236.342,44.872,234.851,46.836,235.724z"/>
	<path style="fill-rule:evenodd;clip-rule:evenodd;" d="M60.996,235.483c0.315,0.085,0.377,0.423,0.72,0.479
		c-2.234,3.767-1.954,10.047-4.08,13.92C57.455,244.742,58.777,239.024,60.996,235.483z"/>
	<path style="fill-rule:evenodd;clip-rule:evenodd;" d="M50.676,241.003c1.864,0.456,1.534,3.106,2.16,4.801
		c0.908,0.544,1.15-1.321,2.4-1.2c-0.648,1.513-2.056,2.265-3.12,3.359c-0.044,1.316-0.984,1.736-0.96,3.12
		c-1.195-0.128,0.336-0.895,0-1.68c-1.256,0.185-1.807,1.073-2.88,1.44c-2.649-1.692-2.431-6.76-0.48-9.12
		C49.133,241.86,49.965,241.492,50.676,241.003z"/>
	<path style="fill-rule:evenodd;clip-rule:evenodd;" d="M44.436,242.684c1.735,0.822,1.292,5.46,0.96,7.92
		c-0.064,0.478-0.414,0.487-0.48,0.72c-0.201,0.706,0.115,1.798,0,2.4c-0.148,0.777-0.624,1.472-0.72,2.159
		c-1.098-0.179-0.267-1.448-0.24-2.159c0.049-1.299,0.187-2.704,0.24-3.841c0.077-1.65-0.432-3.534,0.48-4.56
		C44.305,244.562,43.608,243.277,44.436,242.684z"/>
	<path style="fill-rule:evenodd;clip-rule:evenodd;" d="M57.156,244.123c-0.235,1.685-1.569,2.271-1.68,4.08
		C54.813,247.303,55.417,244.153,57.156,244.123z"/>
	<path style="fill-rule:evenodd;clip-rule:evenodd;" d="M56.436,250.604c-0.438-0.763-1.154-1.246-2.16-1.44
		C55.106,247.903,57.073,249.692,56.436,250.604z"/>
	<path style="fill-rule:evenodd;clip-rule:evenodd;" d="M56.676,251.563c0.873-0.153,0.943,0.497,0.96,1.2
		c0.892,0.092,0.627-0.973,1.68-0.721c-0.302,1.058-1.287,1.433-1.92,2.16c-0.68,1.961,0.375,5.655-0.72,7.2
		C55.146,260.057,56.459,254.619,56.676,251.563z"/>
	<path style="fill-rule:evenodd;clip-rule:evenodd;" d="M43.716,256.363c0.24,0,0.48,0,0.72,0c0.424,0.401-0.213,0.805,0,1.68
		C43.587,258.088,43.248,256.901,43.716,256.363z"/>
	<path style="fill-rule:evenodd;clip-rule:evenodd;" d="M62.196,262.123c0.655,0.06,1.029,0.382,2.16,0.48
		c0.529,1.565-0.761,2.966-1.92,3.6c-2.219-0.231-3.737-1.803-3.6-4.08c0.051-0.848,1.34-5.036,3.36-4.319
		c0.043,0.809,1.001,0.672,1.2,1.439C63.726,260.522,62.858,261.342,62.196,262.123z"/>
	<path style="fill-rule:evenodd;clip-rule:evenodd;" d="M48.756,263.323c0.203,0.997,1.232,1.169,2.16,1.44
		c0.634,0.997-0.954,1.517-1.44,2.159c-0.685-0.515-1.209-1.19-2.64-0.96C45.576,264.655,46.131,262.648,48.756,263.323z"/>
	<path style="fill-rule:evenodd;clip-rule:evenodd;" d="M58.356,263.323c0.004,0.965-0.773,1.146-1.68,1.2
		C56.116,263.536,57.117,263.178,58.356,263.323z"/>
	<path style="fill-rule:evenodd;clip-rule:evenodd;" d="M54.996,264.043c-0.552,1.288-2.375,1.306-2.88,2.641
		c0.246,2.726-1.167,3.793-2.88,4.56C50.056,267.743,51.114,264.48,54.996,264.043z"/>
	<path style="fill-rule:evenodd;clip-rule:evenodd;" d="M55.716,265.003c0.387-0.067,0.413,0.228,0.72,0.24
		c0.115,2.596-0.497,4.464-1.44,6C54.012,269.762,55.67,267.028,55.716,265.003z"/>
	<path style="fill-rule:evenodd;clip-rule:evenodd;" d="M53.556,271.483c1.023-0.008,1.717,0.344,2.4,1.2
		c-2.029,1.65-2.003,5.356-4.56,6.479C52.474,276.998,53.895,274.313,53.556,271.483z"/>
	<path style="fill-rule:evenodd;clip-rule:evenodd;" d="M27.396,277.003c-0.639,0.961-1.439,1.761-2.4,2.4
		c0.075,2.686-0.65,3.827-1.2,6.24c0.422,0.938,2.331,0.389,2.88,1.2c-0.327,2.187-0.611,4.863,1.68,5.039
		c0.022,1.083-0.725-0.104-1.44,0.24c-0.777-0.582-0.868-1.852-1.2-2.88c-0.158-0.878,0.519-0.921,0.48-1.68
		c-0.723-1.327-2.384-0.353-3.12-1.44c-0.166-1.605,0.276-2.604,0.96-3.359C24.078,279.766,24.683,277.33,27.396,277.003z"/>
	<path style="fill-rule:evenodd;clip-rule:evenodd;" d="M52.356,279.163c0.24,0,0.48,0,0.72,0c1.575,4.481-0.542,10.787-6.96,9.601
		c0.014-2.307,2.625-2.015,2.64-4.32c-0.426-0.854-1.024-1.535-2.16-1.68c1.586-1.6,3.299-2.705,5.76-2.881
		C52.356,279.644,52.356,279.403,52.356,279.163z"/>
	<path style="fill-rule:evenodd;clip-rule:evenodd;" d="M44.916,288.283c-0.472,1.928-1.933,2.867-3.84,3.36
		C41.35,289.692,43.326,287.373,44.916,288.283z"/>
	<path style="fill-rule:evenodd;clip-rule:evenodd;" d="M40.836,292.604c-1.296,3.2-5.508,3.065-8.88,4.08
		c-1.236,0.371-2.107,1.321-3.36,1.199c-1.087-3.287,1.377-4.6,4.8-4.56c1.183,0.014,2.195,0.586,3.36,0.48
		C38.836,293.614,39.439,291.996,40.836,292.604z"/>
	<path style="fill-rule:evenodd;clip-rule:evenodd;" d="M22.836,293.083c0.938,0.343,1.578,0.982,1.92,1.92
		c-1.812,1.659,0.358,3.644,1.44,4.561c0.772,0.053,1.015-0.425,1.92-0.24c-0.466,1.079-1.434,0.454-2.64,0.48
		c-0.423-1.39-3.577-2.891-1.44-4.561C23.933,294.227,23.019,294.021,22.836,293.083z"/>
	<path style="fill-rule:evenodd;clip-rule:evenodd;" d="M36.996,296.684c1.924,0.461,3.464-0.136,4.32,1.439
		c-0.548,1.132-1.005,2.355-2.88,2.16c-0.334,1.455,1.141,1.1,0.96,2.4c-0.312,1.527-2.257,1.423-3.6,1.92
		c0.518-1.082,1.787-1.414,3.12-1.681c0.133-1.493-1.455-1.265-1.2-2.88c0.349-1.171,2.802-0.237,2.64-1.92
		C39.148,297.331,37.383,297.834,36.996,296.684z"/>
	<path style="fill-rule:evenodd;clip-rule:evenodd;" d="M35.076,297.883c0.279-0.038,0.427,0.054,0.48,0.24
		c-0.76,8.922-7.505,13.934-11.04,20.88c0.273,2.594-0.674,3.966-0.48,6.48c1.101,1.7,1.978,4.9,2.88,6
		c-3.594-1.821-4.725-6.523-3.6-11.76c0.172-0.652-1.131,0.171-0.96-0.48c-0.246-0.807,0.747-0.373,1.2-0.479
		C27.752,312.159,32.904,306.512,35.076,297.883z"/>
	<path style="fill-rule:evenodd;clip-rule:evenodd;" d="M30.036,301.003c0.213,0.106,0.429,0.211,0.48,0.48
		c-0.355,2.034-2.208,2.22-4.08,3.12c-1.519,0.73-2.46,2.093-3.84,2.64c-0.61,1.47-0.46,3.7-2.16,4.08
		c-0.184-3.146,2.228-6.406,4.8-7.68c0.955-0.474,2.208-0.386,3.12-0.96C29.139,302.19,29.267,301.589,30.036,301.003z"/>
	<path style="fill-rule:evenodd;clip-rule:evenodd;" d="M29.076,307.003c0.597-0.036,0.743,0.377,1.2,0.48
		c0.04,0.759-0.638,0.802-0.48,1.68c-1.235,0.195-1.468-0.612-1.44-1.68C28.708,306.927,29.117,307.952,29.076,307.003z"/>
	<path style="fill-rule:evenodd;clip-rule:evenodd;" d="M23.316,309.403c1.346,0.688,1.939,3.296,1.92,4.56
		C23.587,313.525,23.096,310.943,23.316,309.403z"/>
	<path style="fill-rule:evenodd;clip-rule:evenodd;" d="M17.316,310.844c0.763,0.196,0.89,1.029,1.2,1.68
		c1.08,0.601,3.28,0.079,3.6,1.439C19.174,314.266,17.657,313.142,17.316,310.844z"/>
	<path style="fill-rule:evenodd;clip-rule:evenodd;" d="M18.756,314.923c0.102,2.502-2.169,2.631-3.12,4.08
		c-2.102,0.182-3.083-0.757-5.28-0.479c0.528-1.075,2.538-0.22,3.84-0.48C16.43,317.598,16.88,315.461,18.756,314.923z"/>
	<path style="fill-rule:evenodd;clip-rule:evenodd;" d="M28.356,315.883c0.726,0.154,1.385,0.375,1.44,1.2
		C29.159,316.841,28.431,316.688,28.356,315.883z"/>
	<path style="fill-rule:evenodd;clip-rule:evenodd;" d="M31.716,316.363c1.28,0.72,2.537,1.463,3.36,2.64
		C33.874,320.021,30.988,318.021,31.716,316.363z"/>
	<path style="fill-rule:evenodd;clip-rule:evenodd;" d="M46.356,320.203c-0.56,1.04-0.831,2.369-2.4,2.4
		c0.164-0.877,0.91-1.171,1.2-1.92c-0.196-1.084-0.698-1.862-1.44-2.4c0.111,0.712-0.757,1.766-1.92,1.92
		c0.167-1.032,1.094-1.307,1.44-2.16c-0.058-0.422-0.413-0.547-0.96-0.479c-0.476,0.483-0.071,1.849-1.2,1.68
		c-0.011-0.73,0.507-0.933,0.72-1.439c-2.361-1.514-4.034,0.83-5.52,1.68c0.28-2.784,3.334-3.548,6.24-2.88
		C44.534,317.066,45.644,319.137,46.356,320.203z"/>
	<path style="fill-rule:evenodd;clip-rule:evenodd;" d="M40.836,317.804c-0.222,1.298-0.65,2.39-1.92,2.64
		C39.583,319.59,39.553,318.04,40.836,317.804z"/>
	<path style="fill-rule:evenodd;clip-rule:evenodd;" d="M38.676,318.523c0.903,0.298-0.208,1.784-0.96,1.92
		C37.461,319.229,38.426,319.232,38.676,318.523z"/>
	<path style="fill-rule:evenodd;clip-rule:evenodd;" d="M35.796,320.684c0.193,0.127,0.39,0.25,0.72,0.239c0,0.881,0,1.761,0,2.641
		C35.025,323.628,34.748,321.113,35.796,320.684z"/>
	<path style="fill-rule:evenodd;clip-rule:evenodd;" d="M41.796,320.923c1.074-0.193,1.333,0.428,1.44,1.2
		C42.303,322.176,41.575,322.024,41.796,320.923z"/>
	<path style="fill-rule:evenodd;clip-rule:evenodd;" d="M37.476,321.403c0.972,0.229,0.993,1.407,0.96,2.64
		C37.314,324.036,36.917,322.325,37.476,321.403z"/>
	<path style="fill-rule:evenodd;clip-rule:evenodd;" d="M40.596,321.403c0.857,0.263,1.417,0.823,1.68,1.68
		C41.156,323.084,40.68,322.439,40.596,321.403z"/>
	<path style="fill-rule:evenodd;clip-rule:evenodd;" d="M38.916,321.644c0.24,0,0.48,0,0.72,0c0.238,0.642,0.494,1.266,0.48,2.16
		C39.479,323.32,38.701,322.979,38.916,321.644z"/>
	<path style="fill-rule:evenodd;clip-rule:evenodd;" d="M29.796,324.283c0.24,0,0.48,0,0.72,0c-0.223,3.091-1.366,6.888-0.24,9.84
		C27.678,333.591,28.933,326.269,29.796,324.283z"/>
	<path style="fill-rule:evenodd;clip-rule:evenodd;" d="M46.116,325.003c0.24,0,0.48,0,0.72,0c0.842,0.918,1.451,2.07,1.68,3.601
		c1.442,1.062,4.766,1.442,3.84,4.08c-1.267-0.619-2.169-0.926-3.36,0C46.254,332.047,45.057,327.911,46.116,325.003z"/>
	<path style="fill-rule:evenodd;clip-rule:evenodd;" d="M49.476,326.923c1.715,0.126,1.506,2.175,2.88,2.641
		c-1.053,0.326-2.101-1.414-3.36-1.681C49.121,327.528,49.351,327.278,49.476,326.923z"/>
	<path style="fill-rule:evenodd;clip-rule:evenodd;" d="M33.396,330.283c0.957-0.076,1.773-0.013,2.16,0.48
		C35.184,331.514,33.39,331.288,33.396,330.283z"/>
	<path style="fill-rule:evenodd;clip-rule:evenodd;" d="M51.636,333.403c0.165,0.646-0.496,0.464-0.72,0.72
		c-0.512,0.112-0.457-0.343-0.48-0.72c-2.543,0.971-4.15,3.633-3.84,6.72C44.558,336.973,47.907,331.596,51.636,333.403z"/>
	<path style="fill-rule:evenodd;clip-rule:evenodd;" d="M51.156,335.323c-0.782,0.738-1.843,1.197-3.12,1.44
		C48.495,335.802,49.983,334.793,51.156,335.323z"/>
	<path style="fill-rule:evenodd;clip-rule:evenodd;" d="M52.116,335.804c-1.384,1.175-1.297,3.823-3.12,4.56
		C49.852,338.659,50.424,336.671,52.116,335.804z"/>
	<path style="fill-rule:evenodd;clip-rule:evenodd;" d="M52.356,336.283c1.157,0.043,1.578,0.822,1.68,1.92
		C52.84,338.199,52.705,337.135,52.356,336.283z"/>
	<path style="fill-rule:evenodd;clip-rule:evenodd;" d="M49.716,337.243c-0.628,0.892-1.442,1.599-2.64,1.92
		C47.537,338.104,48.19,337.237,49.716,337.243z"/>
	<path style="fill-rule:evenodd;clip-rule:evenodd;" d="M51.636,337.243c1.063,0.536,1.29,1.911,1.68,3.12
		c-0.106,0.694-0.506,1.094-1.2,1.2C53.689,340.001,51.824,339.027,51.636,337.243z"/>
	<path style="fill-rule:evenodd;clip-rule:evenodd;" d="M34.836,338.443c1.234-0.034,1.248,1.152,2.16,1.439
		c1.813,0.07,3.844,0.827,5.76,1.2c3.123,0.608,9.038-0.43,9.84,3.36c-1.255,0.239-2.028-1.278-3.36-1.68
		c-1.391-0.42-2.979-0.039-4.56-0.24c-3.75-0.477-7.39-1.965-9.84-3.12C34.858,338.748,34.437,338.92,34.836,338.443z"/>
	<path style="fill-rule:evenodd;clip-rule:evenodd;" d="M48.756,339.163c-0.382,0.578-0.655,1.266-1.44,1.44
		C47.5,339.827,47.98,339.348,48.756,339.163z"/>
	<path style="fill-rule:evenodd;clip-rule:evenodd;" d="M50.676,340.123c0.709,0.36,0.383,1.201-0.48,1.2
		C50.159,340.727,50.573,340.58,50.676,340.123z"/>
	<path style="fill-rule:evenodd;clip-rule:evenodd;" d="M18.036,350.923c0.663,1.097,1.632,1.889,2.4,2.881
		c0.175,0.654-0.477,0.482-0.48,0.96c0.131,1.229,1.889,0.831,1.92,2.159c-0.805,0.005-1.6,0.001-1.44-0.96
		c-0.322,0.158-0.447,0.514-0.48,0.96c0.541,1.14,3.399-0.039,4.32,0.721c-0.265,1.175-2.654,0.226-2.88,1.439
		c-1.686,0.166-2.044-0.995-2.64-1.92c-0.968,0.507-2.078,0.103-2.64-0.479c0-0.561,0-1.12,0-1.681
		c-1.167-1.072-3.239-1.241-3.36-3.359C13.78,350.667,16.061,350.948,18.036,350.923z"/>
	<path style="fill-rule:evenodd;clip-rule:evenodd;" d="M43.956,355.243c-1.112,0.749-1.856-0.614-2.64-0.96
		c-1.334-0.105-2.458-0.422-3.36-0.96c-1.011,0.269-2.142,0.418-3.12,0.72c-0.531-0.346,0.302-0.585-0.24-0.72
		c-1.015-0.359-1.542,0.996-2.16,0.24c0.516-0.71,1.891-1.033,2.88-1.2C39.517,351.652,42.023,352.95,43.956,355.243z"/>
	<path style="fill-rule:evenodd;clip-rule:evenodd;" d="M39.876,357.644c3.388-0.368,9.753-2.61,10.8,1.439
		c-1.166,0.271-1.633-1.099-2.88-1.439c-2.337-0.639-5.028,0.612-7.2,1.2c-0.332,1.135,0.751,1.577,0.24,2.159
		c-6.554,2.031-9.392-2.091-11.76-5.76c-0.068-0.388,0.227-0.413,0.24-0.72c3.421-0.85,6.018,1.142,9.36,1.68
		C39,356.76,39.358,357.281,39.876,357.644z M33.396,357.883c1.903,0.176,5.089,2.098,6.72,0.24c-4.632,0.393-6.95-1.53-9.6-3.12
		c-0.16,0-0.32,0-0.48,0C30.779,356.34,32.853,356.346,33.396,357.883z"/>
	<path style="fill-rule:evenodd;clip-rule:evenodd;" d="M28.116,355.483c-0.501,0.938-1.017,1.863-2.4,1.92
		C26.066,356.407,27.145,355.084,28.116,355.483z"/>
	<path style="fill-rule:evenodd;clip-rule:evenodd;" d="M11.556,356.443c0.24,0,0.48,0,0.72,0c-0.428,1.8-1.11,4.122-0.48,6.24
		c-0.739-0.179-0.461,0.658-1.2,0.479C9.819,360.753,10.759,358.071,11.556,356.443z"/>
	<path style="fill-rule:evenodd;clip-rule:evenodd;" d="M47.316,359.323c-0.04,0.952-0.948,0.342-1.44,0.48
		c-0.816,0.229-1.643,1.038-2.64,0.96c-0.378,0.338,0.537,2.149-0.72,2.159c0.304-1.026-0.018-1.187,0-2.399
		C43.664,359.828,45.562,358.613,47.316,359.323z"/>
	<path style="fill-rule:evenodd;clip-rule:evenodd;" d="M24.516,359.804c-0.187,0.933-0.904,1.335-1.68,1.68
		c-0.352,1.52-0.61,3.877,0.72,5.28c-0.88,1.117,0.027,2.631-0.48,3.84c-0.926-0.851-0.925-0.003-1.44,0.72
		c-0.532,0.132-0.342-0.458-0.72-0.479c-0.262,0.777-0.772,1.307-0.96,2.159c-1.068,0.188-1.44-0.319-2.4-0.239
		c1.394,2.477,4.191,1.611,6.96,0.96c0.192,3.523-7.009,6.239-7.68,2.399c-0.115-0.656-1.159-0.897-0.96-2.399
		c0.7,0.06,0.828-0.452,1.2-0.721c-0.857-0.263-1.68-0.561-1.68-1.68c0.716-0.243,1.536-0.385,2.16-0.72
		c0.438,0.842,0.321,2.238,1.92,1.92c0.613-0.827,0.731-2.149,1.44-2.88c-0.907-1.847-0.382-5.397,0.24-7.2
		c0.755-0.275,0.583,0.377,0.96,0.479C22.527,361.494,22.555,359.683,24.516,359.804z"/>
	<path style="fill-rule:evenodd;clip-rule:evenodd;" d="M50.196,360.283c2.586,1.077,2.767,4.757,4.08,7.2
		c0.599,1.113,1.684,1.702,1.44,2.88C52.457,368.423,52.062,363.617,50.196,360.283z"/>
	<path style="fill-rule:evenodd;clip-rule:evenodd;" d="M58.836,363.163c0.974,0.066,0.99,1.09,1.68,1.44
		c0.159,1.439-0.218,2.342-0.24,3.6c-2.537,0.538-2.506,4.257-2.4,6.72c-1.231-1.286-0.949-3.619,0-5.04
		C55.093,367.45,59.52,366.415,58.836,363.163z"/>
	<path style="fill-rule:evenodd;clip-rule:evenodd;" d="M25.236,364.123c0.24,0,0.48,0,0.72,0c0.097,1.37-0.846,2.734-2.16,1.92
		C24.223,365.35,25.333,365.34,25.236,364.123z"/>
	<path style="fill-rule:evenodd;clip-rule:evenodd;" d="M42.276,367.483c-0.979,0.14,0.438-1.451-0.96-0.72
		c0.743-0.537-0.062-2.622,1.2-2.641C42.74,365.591,42.771,366.329,42.276,367.483z"/>
	<path style="fill-rule:evenodd;clip-rule:evenodd;" d="M42.756,364.123c1.033,0.339,1.005,3.234,0,3.601
		C43.193,366.511,42.835,365.445,42.756,364.123z"/>
	<path style="fill-rule:evenodd;clip-rule:evenodd;" d="M14.436,365.083c-0.135,1.305-0.456,2.424-1.68,2.641
		c-0.533,1.387-1.166,2.673-2.64,3.12c0.466-2.654,2.403-3.837,3.6-5.761C13.956,365.083,14.196,365.083,14.436,365.083z"/>
	<path style="fill-rule:evenodd;clip-rule:evenodd;" d="M29.316,366.043c1.24,0.312-0.296,1.487-0.48,1.92
		c1.235,0.133,3.914-0.193,4.32,1.44c-0.835,0.472-1.657-0.814-2.64-0.96c-1.151,0.447-1.667,0.458-3.12,0.24
		c-0.604,0.196-0.334,1.265-0.72,1.68c-1.527,0.167-1.599-1.121-1.92-2.16c0.4,0,0.8,0,1.2,0c0.446,0.425-0.104,0.701-0.24,1.2
		c0.963,0.084,0.633-1.127,1.2-1.44C28.494,368.101,28.73,366.897,29.316,366.043z"/>
	<path style="fill-rule:evenodd;clip-rule:evenodd;" d="M13.716,372.764c-0.763-0.518-0.68-1.881-0.96-2.881
		C14.48,369.106,14.186,371.545,13.716,372.764z"/>
	<path style="fill-rule:evenodd;clip-rule:evenodd;" d="M33.876,369.644c0.857,0.593,1.5,0.625,2.4,0.72
		c-0.377,1.659-2.244,0.072-2.88-0.24C33.456,369.862,33.873,369.961,33.876,369.644z"/>
	<path style="fill-rule:evenodd;clip-rule:evenodd;" d="M36.756,369.883c0.792,0.089,1.834-0.073,1.68,0.961
		C37.999,371.16,36.796,370.706,36.756,369.883z"/>
	<path style="fill-rule:evenodd;clip-rule:evenodd;" d="M11.796,370.844c-0.35,0.609-0.457,1.463-1.44,1.439
		C10.372,371.339,11.114,371.121,11.796,370.844z"/>
	<path style="fill-rule:evenodd;clip-rule:evenodd;" d="M27.876,372.043c2.187,0.283,1.46,3.567-0.48,3.601
		C27.747,374.634,28.042,373.568,27.876,372.043z"/>
	<path style="fill-rule:evenodd;clip-rule:evenodd;" d="M23.316,372.764c-0.225,0.638-1.345,1.174-1.92,0.72
		C21.227,372.214,22.889,372.099,23.316,372.764z"/>
	<path style="fill-rule:evenodd;clip-rule:evenodd;" d="M10.356,373.003c-2.292,2.318-2.67,7.388-2.88,11.04
		c-0.918-0.281-0.482-1.917-0.96-2.64C8.19,378.997,6.876,373.604,10.356,373.003z"/>
	<path style="fill-rule:evenodd;clip-rule:evenodd;" d="M56.196,375.403c-2.526-2.925-6.817,0.156-6,3.36
		c-0.816,0.384-0.877,1.523-1.92,1.68c-1.88-2.729,0.853-7.727,4.32-7.44c0.476,0.04,0.486,0.515,0.96,0.721
		C54.409,374.094,56.12,373.901,56.196,375.403z"/>
	<path style="fill-rule:evenodd;clip-rule:evenodd;" d="M14.196,373.483c1.098,0.422,1.127,1.912,1.44,3.12
		c-0.699-0.261-0.94-0.98-1.2-1.681c-0.558,0.105-0.643,1.061-1.2,0.48C13.742,374.949,13.977,374.224,14.196,373.483z"/>
	<path style="fill-rule:evenodd;clip-rule:evenodd;" d="M14.196,376.844c0.006,1.046,0.143,2.223-0.48,2.64
		c-1.889-0.031-2.807-1.033-3.6-2.16C11.1,376.288,12.857,375.65,14.196,376.844z"/>
	<path style="fill-rule:evenodd;clip-rule:evenodd;" d="M54.756,376.363c-1.009,1.951-2.684,3.236-4.32,4.56
		C51.648,379.241,52.377,376.114,54.756,376.363z"/>
	<path style="fill-rule:evenodd;clip-rule:evenodd;" d="M57.156,376.604c1.555,0.643,1.364,5.964,0.72,7.2
		c-0.164,0.314-0.54,0.564-0.72,0.96c-0.5,1.099-0.495,2.682-0.96,3.6c-2,3.948-9.725,8.282-13.92,8.64
		c0.779-1.176,1.852-0.835,3.12-1.439c0.374-0.178-0.195-0.422,0.24-0.72c0.001-0.002,1.441-0.231,1.92-0.48
		c1.651-0.858,3.238-2.628,5.28-3.36c0.529-0.591,0.879-1.36,1.68-1.68c0.113-1.005,0.799-1.919,1.2-2.88
		C56.773,383.911,57.436,380.491,57.156,376.604z"/>
	<path style="fill-rule:evenodd;clip-rule:evenodd;" d="M13.716,388.123c-1.58-0.34-2.028-1.812-4.08-1.68
		c-1.909-1.104-0.997-3.957-1.44-5.521c2.69-1.896,5.828,0.073,6,2.881C13.681,385.403,13.948,386.296,13.716,388.123z"/>
	<path style="fill-rule:evenodd;clip-rule:evenodd;" d="M25.716,380.203c0.24,0,0.48,0,0.72,0c0.202,0.278,0.316,0.644,0.24,1.2
		C26.265,381.095,25.732,380.907,25.716,380.203z"/>
	<path style="fill-rule:evenodd;clip-rule:evenodd;" d="M27.396,380.203c2.477,1.444,3.65,5.47,3.36,8.88
		c-0.479,1.243-3.021,1.29-4.08,1.2C25.601,387.436,28.927,384.256,27.396,380.203z"/>
	<path style="fill-rule:evenodd;clip-rule:evenodd;" d="M49.956,380.203c0.116,0.916-0.068,1.532-0.48,1.92
		C48.283,381.813,48.855,380.204,49.956,380.203z"/>
	<path style="fill-rule:evenodd;clip-rule:evenodd;" d="M5.556,381.403c-0.669,2.131-2.504,3.096-5.28,3.12
		c-0.076-0.563-0.379-0.901-0.24-1.68C1.894,383.202,3.6,380.874,5.556,381.403z"/>
	<path style="fill-rule:evenodd;clip-rule:evenodd;" d="M7.716,385.483c0.24,0,0.48,0,0.72,0c0,0.399,0,0.8,0,1.2
		C7.465,386.952,7.25,385.946,7.716,385.483z"/>
	<path style="fill-rule:evenodd;clip-rule:evenodd;" d="M36.036,388.604c1.939,0.381,2.832,1.808,3.84,3.12
		c0.082,1.122-0.518,1.562-0.72,2.399c-1.045-0.154-1.152-1.248-2.16-1.439c-0.894-0.031-1.572,0.948-2.16,0.479
		c-0.113-0.753,0.646-0.634,0.72-1.2c1.819-0.299,2.308,0.732,3.84,0.721c-0.188-0.84-0.688-1.637-1.2-2.16
		C37.531,389.843,36.216,389.737,36.036,388.604z"/>
	<path style="fill-rule:evenodd;clip-rule:evenodd;" d="M8.916,389.804c0.279-0.039,0.427,0.053,0.48,0.239
		c0.163,2,1.593,4.004,1.2,5.761c-1.194-1.206-1.458-3.343-2.16-5.04C8.261,390.108,8.913,390.28,8.916,389.804z"/>
	<path style="fill-rule:evenodd;clip-rule:evenodd;" d="M37.476,395.563c-0.186,0.935,0.337,1.67,0.96,2.399
		c-1.366,0.047-1.866-1.28-2.88-1.92c-0.495-0.312-1.333-0.419-1.92-0.72c-0.926-0.475-2.211-0.956-3.36-1.68
		c-0.926-0.584-1.93-1.642-3.36-2.16c0.105-0.295,0.307-0.493,0.72-0.48C31.418,392.021,33.827,394.413,37.476,395.563z"/>
	<path style="fill-rule:evenodd;clip-rule:evenodd;" d="M23.796,393.403c0.731,1.244,0.105,3.281,0.96,4.8
		c0.418-1.343-0.019-2.812,0-4.8c3.744-0.092,3.928,6.939,2.16,9.36c-1.108-0.172-0.465-2.096-0.96-2.881
		c-1.082,0.405,0.067,1.548-0.24,2.641c-0.871-0.567-1.574-0.555-1.92,0.479C20.29,401.992,18.684,393.016,23.796,393.403z"/>
	<path style="fill-rule:evenodd;clip-rule:evenodd;" d="M69.636,394.123c1.225-0.024,3.619-0.21,2.88,0.96
		C71.705,394.614,69.905,395.135,69.636,394.123z"/>
	<path style="fill-rule:evenodd;clip-rule:evenodd;" d="M2.436,395.083c0.16,0,0.32,0,0.48,0c2.328,0.172,3.256,2.326,5.04,3.12
		c0.917,0.409,1.894,0.039,2.88,0.72c-0.521,1.244,0.205,1,0.72,1.681c-0.46,1.14-1.426,1.773-2.16,2.64
		c-5.078,0.117-6.74-3.18-7.68-7.2c2.423,1.017,3.069,3.811,5.28,5.04c0.918-0.038,1.903-0.143,1.92,0.721
		c0.796-0.085,1.041-0.72,1.44-1.2c-3.318-0.282-5.32-1.88-6.48-4.32C3.245,396.034,2.31,396.09,2.436,395.083z"/>
	<path style="fill-rule:evenodd;clip-rule:evenodd;" d="M72.036,395.083c-0.539,1.302-1.768,1.912-3.12,2.4
		c0.32-0.936-0.124-1.244,0.24-1.92C70.56,395.847,70.795,394.962,72.036,395.083z"/>
	<path style="fill-rule:evenodd;clip-rule:evenodd;" d="M76.116,397.963c-1.293,0.947-3.013,1.468-4.8,1.92
		c0.492-1.508,2.571-1.429,3.6-2.399c-0.07-0.489-0.649-0.471-0.72-0.96c-1.266,0.814-2.301,1.859-4.32,1.92
		c0.771-1.47,2.863-1.617,3.84-2.88C74.914,395.966,75.218,397.261,76.116,397.963z"/>
	<path style="fill-rule:evenodd;clip-rule:evenodd;" d="M33.156,396.523c0.755-0.275,0.583,0.377,0.96,0.479
		c-0.008,0.873-0.706,1.055-1.68,0.96C32.227,397.034,33.484,397.571,33.156,396.523z"/>
	<path style="fill-rule:evenodd;clip-rule:evenodd;" d="M11.556,399.883c-0.546-0.548,0.759-1.212-0.24-1.68
		C12.466,396.431,13.552,400.079,11.556,399.883z"/>
	<path style="fill-rule:evenodd;clip-rule:evenodd;" d="M59.076,404.203c-0.521,1.981-2.996,0.253-4.56-0.24
		c-1.938-0.61-4.124-1.064-5.04-2.159c-3.123-0.798-6.048-1.792-8.64-3.12c-0.127-0.193-0.25-0.39-0.24-0.721
		c1.188-0.545,2.42,0.719,3.36,1.2c0.56,0,1.12,0,1.68,0C49.461,401.498,55.124,401.996,59.076,404.203z"/>
	<path style="fill-rule:evenodd;clip-rule:evenodd;" d="M66.516,398.203c3.597,1.679,5.602,5.974,10.56,5.521
		c-0.215,1.465-3.274,0.086-2.88,2.159C70.232,406.612,66.644,402.019,66.516,398.203z"/>
	<path style="fill-rule:evenodd;clip-rule:evenodd;" d="M44.916,414.523c-0.283-0.717-0.208,0.878-0.96,0.479
		c0.179-2.27,0.527-4.451,0.24-6c-0.785-4.23-5.495-5.493-5.76-10.319c1.896,0.584,1.141,3.818,3.36,4.08
		c1.124,0.004,0.911-1.329,1.44-1.92c0.448,0.47,0.879,0.073,1.44,0c1.78,2.59,2.396,8.913,0.96,12.479
		c0.277,1.054,0.232,2.431-1.2,2.4C44.399,415.126,44.813,414.98,44.916,414.523z M45.156,413.804
		c0.368-2.947,0.354-6.678-0.48-9.12c-0.653-0.388-1.926-0.154-2.4-0.721C44.256,406.663,44.89,409.807,45.156,413.804z"/>
	<path style="fill-rule:evenodd;clip-rule:evenodd;" d="M76.596,399.163c-0.383,1.697-2.731,1.429-4.56,1.681
		C72.937,399.664,75.231,399.878,76.596,399.163z"/>
	<path style="fill-rule:evenodd;clip-rule:evenodd;" d="M29.316,419.563c-1.217-0.572,0.92-0.886,0.96-1.681
		c-0.226-5.453-4.453-6.906-6.72-10.319c-4.387-1.693-8.316-3.845-10.56-7.681c1.165,0.098,2.091,1.489,3.12,2.4
		c1.102,0.977,2.253,1.873,3.36,2.64c0.48,0,0.96,0,1.44,0c1.786,1.28,4.846,3.538,6.72,5.521c1.947,2.06,3.568,4.809,3.6,6.479
		C31.264,418.408,30.469,419.021,29.316,419.563z"/>
	<path style="fill-rule:evenodd;clip-rule:evenodd;" d="M65.556,400.123c0.583,0.377,0.899,1.021,0.96,1.92
		c1.067,2.053,2.855,3.385,4.08,5.28c1.702,0.538,3.483,0.997,5.04,1.68c-0.722,1.231-1.615-0.74-3.12-0.239
		c-0.331,1.482-1.249,0.976-1.44,2.399c-0.56,0-1.12,0-1.68,0c-0.03-0.431,0.294-0.506,0.24-0.96
		c-2.095-1.506-3.365-3.835-3.84-6.96c-0.106-0.854-0.869-1.051-1.2-1.68C64.645,400.812,65.215,400.582,65.556,400.123z"/>
	<path style="fill-rule:evenodd;clip-rule:evenodd;" d="M77.316,400.844c-0.421,1.258-2.587,0.772-4.08,0.96
		C74.266,401.262,76.248,400.565,77.316,400.844z"/>
	<path style="fill-rule:evenodd;clip-rule:evenodd;" d="M78.036,402.283c-0.135,1.226-2.182,0.538-3.36,0.72
		C74.821,401.942,77.3,401.956,78.036,402.283z"/>
	<path style="fill-rule:evenodd;clip-rule:evenodd;" d="M164.916,404.443c0.806-0.555,2.636-0.084,3.84-0.24
		C167.492,404.897,166.025,404.609,164.916,404.443z"/>
	<path style="fill-rule:evenodd;clip-rule:evenodd;" d="M237.156,413.563c-0.864-1.776-2.702-2.578-5.28-2.641
		c-0.243-2.003,1.806-1.715,2.64-2.64c0.177-0.943,0.417-1.823,0.721-2.64c2.773-1.618,5.584,0.094,6.72,2.16
		c0.142,0.568-0.279,1.764-0.479,1.199C241.353,410.949,239.278,412.835,237.156,413.563z"/>
	<path style="fill-rule:evenodd;clip-rule:evenodd;" d="M61.956,405.644c0.342,3.418,2.203,5.317,4.56,6.72
		c-0.513,1.262,0.059,1.947,0.48,2.88c-4.838,2.646-7.45-3.866-7.44-9.12C60.229,405.226,60.776,405.115,61.956,405.644z"/>
	<path style="fill-rule:evenodd;clip-rule:evenodd;" d="M74.916,405.403c1.499-0.491,4.548,2.957,2.4,4.56
		C77.534,407.426,75.956,406.684,74.916,405.403z"/>
	<path style="fill-rule:evenodd;clip-rule:evenodd;" d="M189.156,412.604c-0.19,0.906,0.791,0.821,0.96,1.92
		c-2.218,0.169-3.886-1.564-5.76-2.641c-3.843-2.205-8.71-4.644-14.4-5.279c-4.793-0.536-9.767,0.44-15.12,0.479
		c0.854-1.362,2.578-1.073,4.8-1.2c5.326-0.303,10.404-1.185,15.12,0.48c0.366,0.129,0.559,0.617,0.96,0.72
		c3.086,0.791,6.76,1.673,8.641,3.84c0.889,0.274,1.391,0.023,1.92,0.24c0.558,0.482,0.995,1.085,1.439,1.681
		C188.138,412.705,189.126,413.134,189.156,412.604z"/>
	<path style="fill-rule:evenodd;clip-rule:evenodd;" d="M66.516,408.283c-1.303,0.287-3.458-0.501-3.6-2.16
		C63.979,406.167,65.962,406.972,66.516,408.283z"/>
	<path style="fill-rule:evenodd;clip-rule:evenodd;" d="M230.916,413.563c-0.726-0.363,0.199-1.054,0-1.681
		c-1.148-0.348-0.597,1.004-0.72,1.681c-0.756,0.116-0.18-1.101-0.72-1.2c-0.542,0.179-0.095,1.347-0.24,1.92
		c-1-0.681-0.495-2.865-1.2-3.84c-0.403,0.892,0.289,2.745,0.24,4.08c-1.424-0.576-0.487-3.514-1.681-4.32
		c-0.818,1.15,1.178,2.812,0.24,4.08c-0.831-0.049-0.437-1.323-0.72-1.92c-0.537,0.104-0.098,1.183-0.24,1.68
		c-0.783-0.454-0.43-1.654-1.439-0.72c0-0.64,0-1.28,0-1.92c0.314,0.085,0.377,0.423,0.72,0.479c-0.111-1.408-0.41-2.629-1.2-3.359
		C226.206,403.356,233.821,409.397,230.916,413.563z"/>
	<path style="fill-rule:evenodd;clip-rule:evenodd;" d="M75.876,410.923c-0.616,1.297-2.77,0.343-3.12-0.72
		C73.835,409.555,75.182,410.417,75.876,410.923z"/>
	<path style="fill-rule:evenodd;clip-rule:evenodd;" d="M137.556,411.163c-3.26,2.189-7.435,2.29-11.52,3.36
		c-0.732,0.191-1.43,0.801-2.16,0.96c-2.601,0.565-5.662,0.174-8.64,0.479c-0.351,0.62,1.157,2.102,0.48,3.12
		c-0.907-0.429-0.733-1.933-1.44-2.64c-1.293-1.294-4.117-1.628-6.48-2.16c-3.354-0.756-7.078-2.256-10.8-2.64
		c-6.267-0.647-12.998,0.104-18.72,0.239c0.422,3.959-7.5,5.906-9.84,2.4c1.043-0.629,1.605,0.775,2.88,0.96
		c2.905,0.421,7.007-1.343,5.76-3.84c1.312,0.433,1.045-0.715,1.68-0.96c5.572-0.229,12.482-0.8,18.48,0
		c1.195,0.159,2.368,0.77,3.6,0.96c0.613,0.095,1.332-0.134,1.92,0c1.029,0.235,2.048,0.925,3.12,1.2
		c1.957,0.502,4.338,0.281,6.72,0.96c-0.003-0.001,0.604,0.176,0.72,0.24c0.372,0.206,0.863,0.716,1.92,0.239
		c-0.167,0.194-0.374,0.658,0,0.721c3.032,0.16,5.416-0.075,8.4-0.721c2.813-0.608,6.091-1.243,8.4-1.92
		C134.106,411.517,135.559,410.119,137.556,411.163z"/>
	<path style="fill-rule:evenodd;clip-rule:evenodd;" d="M191.076,413.563c1.695-1.739,6.611-1.04,7.92,0.479
		c3.234-0.095,6.024-0.133,7.92-1.439c0.95-0.655,0.984-2.166,2.4-2.16c-1.162,3.719-4.666,5.094-9.84,4.8
		C198.028,413.105,193.867,413.75,191.076,413.563z"/>
	<path style="fill-rule:evenodd;clip-rule:evenodd;" d="M223.236,411.403c0.614,0.266,0.471,1.289,0.479,2.16
		c-1.122-0.243-0.797,0.963-1.92,0.72c0-0.32,0-0.64,0-0.96c0.457-0.449,0.604-0.026,1.2,0
		C223.024,412.632,222.865,411.752,223.236,411.403z"/>
	<path style="fill-rule:evenodd;clip-rule:evenodd;" d="M137.796,411.883c0.214,0.187,0.542,0.259,0.96,0.24
		c0.939,0.98,1.129,2.711,1.2,4.561c1.163,1.478,3.157,2.123,4.8,3.12c1.061-0.021,2.04,0.04,1.92,1.199
		c-0.514,0.682-1.246-0.096-1.92,0c-0.438,0.062-0.981,0.628-1.439,0.721c-0.694,0.14-1.528-0.104-2.4,0
		c-2.935,0.35-5.998,2.173-7.92-0.48c2.307,0.227,2.888-1.272,4.56-1.68c0.363-0.598,0.59-1.331,1.681-1.2
		c-0.2-1.329,0.153-2.779-0.24-4.08C138.662,413.182,137.376,412.757,137.796,411.883z"/>
	<path style="fill-rule:evenodd;clip-rule:evenodd;" d="M140.437,412.123c2.181-0.101,2.184,1.976,3.84,2.4
		c1.553-1.608,3.4-0.612,5.52,0c1.458,0.421,3.034,0.243,3.36,1.439c-2.323,1.417-6.721-0.214-8.641,0
		c2.496,1.897,6.305,1.408,9.36,1.2c-1.04,1.92-3.27,2.65-5.52,3.36c-1.713-1.344-5.007-2.331-4.32-5.28
		C143.199,413.841,140.988,413.811,140.437,412.123z"/>
	<path style="fill-rule:evenodd;clip-rule:evenodd;" d="M209.796,412.123c-0.396,2.244-1.765,3.516-2.16,5.76
		c-1.29,1.19-3.305,1.655-6,1.44c-0.468-0.652-1.283-0.956-1.439-1.92c-0.339-0.542-1.563-0.197-1.44-1.2
		c3.363-0.203,5.948-0.434,8.88-1.68C207.836,413.203,208.349,412.195,209.796,412.123z"/>
	<path style="fill-rule:evenodd;clip-rule:evenodd;" d="M190.836,414.523c1.067-0.106,1.271,0.65,1.92,0.96
		c0.666-0.054,0.679-0.761,1.2-0.96c1.461,0.299,3.698-0.179,3.84,1.439c-1.351,0.976-2.64-0.414-4.56-0.239
		c1.502,0.612,2.427,2.12,4.08,3.6c1.235,1.106,2.855,2.169,1.68,4.32c-1.968-0.119-2.44-2.72-4.56-1.92
		c0.398,1.44,2.225,1.455,2.64,2.88c-0.248,1.191-1.306,1.574-2.88,1.439c0.415,1.319,1.764,0.248,2.88,0.24
		c-0.026,0.453-0.794,0.167-0.72,0.72c1.114,0.141,1.448-0.328,2.159,0c0.157,1.479-1.734,0.987-2.159,0.96
		c-2.119-0.136-3.703-2.608-4.561-3.84c0-0.88,0-1.76,0-2.64c0.284-0.276,0.849-0.271,1.44-0.24c-1.795-1.646-4.145-2.735-4.32-6
		c1.275-0.068,1.368,2.303,1.44,2.64c0.941,1.06,1.793,2.207,3.12,2.881c-0.126-0.902,0.762-1.437,1.439-2.16
		c-0.842-0.879-2.083-2.228-3.6-1.681C192.702,415.688,189.864,415.987,190.836,414.523z M193.716,425.563
		c0.603-0.198,2.066,0.467,1.92-0.48C195.034,425.281,193.569,424.617,193.716,425.563z"/>
	<path style="fill-rule:evenodd;clip-rule:evenodd;" d="M211.477,415.483c0.138,1.309-2.177,1.164-2.641,0.479
		C209.125,414.956,210.892,414.197,211.477,415.483z"/>
	<path style="fill-rule:evenodd;clip-rule:evenodd;" d="M225.636,416.684c-0.434,0.926-1.623,1.097-2.88,1.199
		c-0.493-0.331,0.551-1.142-0.72-0.96C222.12,415.271,225.062,416.004,225.636,416.684z"/>
	<path style="fill-rule:evenodd;clip-rule:evenodd;" d="M28.596,418.844c-0.105,0.295-0.307,0.492-0.72,0.479
		c1.015,2.025,1.021,5.06,1.92,7.2c-0.557,0.105-0.642,1.06-1.2,0.479c-0.175-0.654,0.477-0.482,0.48-0.96
		c-0.645-0.314-0.862-1.058-1.44-1.439c-0.068-2.572-1.464-3.816-2.4-5.521c-1.11-0.81-3.127-0.713-3.36-2.399
		C25.198,414.754,25.771,419.581,28.596,418.844z"/>
	<path style="fill-rule:evenodd;clip-rule:evenodd;" d="M221.316,417.403c0.388-0.067,0.413,0.227,0.72,0.24
		c-0.079,1.679,0.869,2.331,1.92,2.88c0.685,1.167,1.286,2.374,2.16,3.359c0.828,0.935,2.01,1.49,2.88,2.4
		C223.785,427.223,218.187,422.534,221.316,417.403z"/>
	<path style="fill-rule:evenodd;clip-rule:evenodd;" d="M227.316,417.403c0.028,1.789-2.348,1.173-3.84,1.44
		C223.874,417.48,225.997,417.845,227.316,417.403z"/>
	<path style="fill-rule:evenodd;clip-rule:evenodd;" d="M31.236,417.883c0.655-0.174,0.483,0.478,0.96,0.48
		c-0.226,1.694-0.707,3.133-1.44,4.32C30.483,421.605,31.312,419.563,31.236,417.883z"/>
	<path style="fill-rule:evenodd;clip-rule:evenodd;" d="M228.516,419.083c-0.401,1.17-3.05,1.199-4.319,0.721
		C225.36,419.396,227.251,418.608,228.516,419.083z"/>
	<path style="fill-rule:evenodd;clip-rule:evenodd;" d="M114.756,420.283c0.24,0,0.48,0,0.72,0c1.107,3.369-3.943,2.601-5.04,4.561
		c-1.64,0.251-2.936-0.622-3.84,0.239c-0.817,0.017-1.675,0.075-1.92-0.479c-1.074,1.254-3.084,0.896-4.32,0
		c-0.357,0.388,0.159,1.154-0.48,1.68c-2.67-0.93-3.492,1.94-5.52,0.24c1.545,0.321,3.257-1.807,4.8-0.72
		c0.618-0.183,0.834-0.767,0.72-1.681c1.422,0.553,2.267,0.258,3.84,0.48c-1.605-1.676-5.235-1.325-6.72-3.12
		c2.089-0.246,2.9,2.056,4.8,1.2c2.061,2.058,5.964,1.9,9.12,0.96c-1.347-1.141-2.568-1.29-4.32-1.681
		c0.649-0.346,1.592,0.12,2.64-0.239c1.28,2.098,4.263,0.718,6,0C115.299,421.021,114.693,420.986,114.756,420.283z"/>
	<path style="fill-rule:evenodd;clip-rule:evenodd;" d="M228.756,420.283c0.161,1.12-3.191,1.02-3.359,0.24
		C226.36,420.287,227.502,420.229,228.756,420.283z"/>
	<path style="fill-rule:evenodd;clip-rule:evenodd;" d="M228.996,421.483c-0.285,0.845-2.706,0.531-3.36,0.24
		C226.442,421.4,228.104,420.954,228.996,421.483z"/>
	<path style="fill-rule:evenodd;clip-rule:evenodd;" d="M24.276,421.963c-1.356,0.971-1.093,2.899-1.68,4.32
		c-0.727,1.759-2.126,3.088-2.88,4.561c-0.75-0.613-1.498-0.138-2.16-0.48C16.994,424.885,19.41,421.228,24.276,421.963z"/>
	<path style="fill-rule:evenodd;clip-rule:evenodd;" d="M25.476,421.963c0.646,3.448,0.416,8.096-1.44,9.841
		c-1.742,0.302-2.474-0.406-3.36-0.96C22.941,428.548,23.427,424.475,25.476,421.963z"/>
	<path style="fill-rule:evenodd;clip-rule:evenodd;" d="M229.236,422.443c0.034,0.994-1.67,0.25-2.4,0.479
		C226.918,422.193,228.736,421.96,229.236,422.443z"/>
	<path style="fill-rule:evenodd;clip-rule:evenodd;" d="M227.316,423.644c0.4-0.463,2.213-0.307,2.64,0
		c-0.284,0.673-1.536,0.511-0.24,0.96c-0.127,0.82-1.156,0.367-1.68,0.24C228.517,423.966,228.019,423.89,227.316,423.644z"/>
	<path style="fill-rule:evenodd;clip-rule:evenodd;" d="M15.636,100.843c-3.65-4.674,5.891-7.62,7.44-11.28
		c-0.338-1.212,0.396-2.073,0.48-3.12c0.216-2.696-0.968-5.235-0.24-7.92c-0.412-1.235-1.208-3.208-0.96-4.32
		c0.997,0.508,0.857,1.075,1.2,2.4c0.436,1.683,2.186,2.732,2.4,3.84c0.09,0.465,0.083,3.807,0,4.56
		c-0.25,2.289-2.312,5.178-3.36,6.96c0.336,0.944,1.679,0.881,1.68,2.16c-0.873,0.153-0.943-0.497-0.96-1.2
		C19.29,94.097,15.898,95.905,15.636,100.843z"/>
	<path style="fill-rule:evenodd;clip-rule:evenodd;" d="M27.396,200.923c0.191-0.929-0.613-2.853,0.96-2.4
		c-1.331,1.369,0.006,2.247,0.48,3.6C28.673,202.348,28.087,200.966,27.396,200.923z"/>
	<path style="fill-rule:evenodd;clip-rule:evenodd;" d="M40.116,215.323c-0.116,1.076,0.848,1.072,0.96,1.92
		c-0.587,0.776-0.203,1.433-0.48,2.16c-0.193-0.127-0.39-0.25-0.72-0.24c0.685-1.815,0.137-2.141-0.48-3.6
		C39.602,215.216,41.271,214.982,40.116,215.323z"/>
	<path style="fill-rule:evenodd;clip-rule:evenodd;" d="M51.396,251.804c0.767-0.834,1.315-1.885,2.64-2.16
		C53.02,250.228,52.622,251.429,51.396,251.804z"/>
	<path style="fill-rule:evenodd;clip-rule:evenodd;" d="M40.356,283.724c-1.024-0.176-0.547-1.854-2.16-1.44
		c-0.797,0.508,0.72,0.697,0.48,1.44c-1.456,0.096-1.295-1.425-2.64-1.44c-0.642,0.503,0.606,1.139,0.72,1.68
		c-1.028,0.619-1.735-1.138-3.12-0.96c-0.679,0.854,1.163,0.791,0.96,1.92c-1.096,0.216-1.36-0.399-2.16-0.479
		c-0.807,0.388,0.754,0.76,0,1.2c-0.68,0.25-1,0.25-1.68,0c0.766-0.675,0.884-1.997,1.44-2.88c-1.831,0.243-2.49,4.097-2.16,6
		c2.405-0.646,3.958-2.665,6.72-3.12c1.271-0.21,2.738,0.204,4.32-0.24c1.006,1.942-0.542,4.053-1.44,5.52
		c-2.087,0.416-4.242,0.771-6.24,0.24c-0.276-0.073-0.625-0.78-1.2-0.96c-0.325-0.102-0.911,0.169-1.2,0
		c-0.879-0.511-1.235-1.511-1.92-1.92c-0.071-4.471,2.214-6.585,4.8-8.4c1.813,0.515,2.407-1.293,4.08-1.199
		C39.993,278.798,42.142,281.792,40.356,283.724z"/>
	<path style="fill-rule:evenodd;clip-rule:evenodd;" d="M40.596,362.443c-1.489,1.76,0.121,4.005,0.72,5.76
		c-2.869,0.369-4.625-2.399-4.56-5.76c0.72,0,1.44,0,2.16,0c0.104,0.377,0.755,0.205,0.48,0.96
		C40.431,363.718,39.693,362.261,40.596,362.443z"/>
	<path style="fill-rule:evenodd;clip-rule:evenodd;" d="M41.076,362.923c1.54,0.207,0.09,1.246,0,1.921
		C40.542,364.598,41.39,363.74,41.076,362.923z"/>
	<path style="fill-rule:evenodd;clip-rule:evenodd;" d="M15.636,377.323c0.005-0.646,1.72,1.07,2.16,1.68
		c0.414,0.572,0.322,1.188,0.72,1.92c1.024,1.885,3.007,3.513,3.6,5.28C18.577,385.573,17.647,380.279,15.636,377.323z"/>
	<path style="fill-rule:evenodd;clip-rule:evenodd;" d="M40.596,382.844c1.088-0.129,0.561,1.359,0.96,1.92
		c2.67,1.174,4.948,3.341,4.08,6.479c-0.468,1.692-2.178,2.659-2.4,4.08c-1.787-0.238-3.144,0.714-4.56,0.96
		c-0.709-0.209,0.557-0.359,0.24-0.96c0.753-0.267,0.634-0.112,1.2,0.24c2.808-1.01,3.021-6.346,0.96-8.4
		C41.487,385.257,39.768,384.388,40.596,382.844z"/>
	<path style="fill-rule:evenodd;clip-rule:evenodd;" d="M127.236,406.363c-0.051-0.771,0.855-0.584,1.2-0.96
		c1.871,0.608,4.783,0.177,5.279,2.16c2.085-0.366,2.274,1.44,4.561,1.439c0.666,0.055,0.679,0.762,1.2,0.96
		c5.091-0.908,10.072-1.927,14.64-3.359c-0.726,2.282,0.982,3.678,3.12,3.84c-0.216-1.305-1.425-1.615-1.92-2.64
		c2.436,0.044,2.727,2.232,4.319,3.119c6.062-1.757,8.104,5.728,5.521,9.841c-2.267-0.294-3.782-1.338-6.72-0.96
		c-1.608-1.192-3.693-1.907-4.561-3.841c0.06-1.593,0.146-1.733-0.24-2.88c2.358-0.383,3.03,0.356,5.28,0.48
		c1.02,1.7,2.711,2.729,4.08,4.08c0.359-1.724-2.222-2.576-2.88-4.08c-0.079-0.959,1.254-0.507,1.68-0.96
		c-1.882-1.937-4.734,0.187-6.96,0c-2.791-0.234-4.977-2.689-7.2-1.92c1.156-1.416,4.292-1.367,6.24-0.721
		c0.529-0.506-0.308-0.709-0.24-1.439c-3.682,0.426-6.226,0.924-10.08,1.68c-0.828,0.163-1.753,0.717-2.399,0.72
		c-3.137,0.017-5.775-3.729-9.12-1.439c0.048-0.968,1.63-0.432,2.16-1.44c-1.061-0.939-1.996-2.004-4.32-1.68
		c-0.597,0.037-0.743-0.377-1.2-0.48C127.964,405.674,127.492,406.908,127.236,406.363z"/>
	<path style="fill-rule:evenodd;clip-rule:evenodd;" d="M216.516,412.123c-0.887-1.912-3.229-2.369-4.8-3.6
		c4.109-1.988,8.738,0.982,10.32,3.84c-0.352,1.088-0.922,1.958-1.92,2.4C218.635,414.164,218.372,412.348,216.516,412.123
		c0.387,2.014,2.576,2.225,3.12,4.08c-1.459,2.97-5.649,2.103-7.199-0.24c-0.075-2.564-1.819-3.46-1.921-6
		C212.994,408.526,213.691,412.376,216.516,412.123z"/>
	<path style="fill-rule:evenodd;clip-rule:evenodd;" d="M117.156,410.923c0.32,0,0.64,0,0.96,0c0.236,1.916-1.712,1.648-2.4,2.641
		C114.947,412.395,118.292,412.52,117.156,410.923z"/>
	<path style="fill-rule:evenodd;clip-rule:evenodd;" d="M27.156,23.563c-2.813-1.509-5.362-3.395-8.88-3.6
		c-1.503-0.088-3.015,0.602-4.8,0.24c1.005,1.579,3.302,0.463,4.8,0.48c0.538,0.006,1.307,0.159,1.68,0.24
		c0.881,0.191,1.678,1.042,2.64,1.44c0.567,0.234,1.053,0.001,1.44,0.24c0.875,0.541,1.484,1.582,2.16,2.16
		c-1.102,2.317-2.894,4.01-5.76,2.4c-0.639-0.359-0.925-1.2-1.68-1.68c-0.752-0.478-1.727-0.511-2.4-0.96
		c-1.918-1.279-3.506-3.318-4.32-4.32c1.906-1.178,3.963-3.336,6.72-2.88c2.11-1.33,4.702-2.222,6.72-0.48
		c0.481,0.416,2.352,3.552,2.4,4.32C27.926,21.951,27.404,22.759,27.156,23.563z"/>
	<path style="fill-rule:evenodd;clip-rule:evenodd;" d="M32.196,46.124c-1.589,2.091-2.673,4.688-5.28,5.76
		c-1.639-0.681-1.619-3.021-3.36-3.6c-2.346-0.346-3.365,0.635-5.04,0.96c0.446-1.474,2.177-1.663,4.08-1.68
		c0.583-1.897,3.734-1.227,5.04-2.4c-1.529-0.484-3.798,0.359-5.28,0.72c-0.288-0.913-1.271-1.129-1.92-1.68
		c-0.978,0.715-1.873,0.035-2.88,0.72c-0.62,0.34-0.539,1.381-1.2,1.68c-0.08,1.52,1.479,1.4,1.92,2.4
		c-0.198,0.929-1.423,0.959-2.16,1.44c-0.688,0.45-1.232,1.586-1.92,1.2c-0.242-1.519-0.668-2.852-1.44-3.84
		c-0.015-3.31,2.271-5.55,5.76-4.56c1.719-1.447,4.039-3.21,6.72-3.12c0.711,0.024,0.857,0.506,1.44,0.72
		c0.855,0.314,2.188,0.267,2.88,0.72C31,42.51,31.307,44.463,32.196,46.124z M29.796,44.923c-0.309-0.331-1.042-0.238-1.68-0.24
		C27.989,45.821,29.468,45.331,29.796,44.923z"/>
	<path style="fill-rule:evenodd;clip-rule:evenodd;" d="M24.516,94.843c1.532,0.869,2.43,2.37,3.36,3.84
		c1.266,0.014,1.625,0.936,2.64,1.2c-0.203,1.931,1.303,2.851,0.96,4.56c-1.945-1.335-2.659-3.901-5.04-4.8
		c-0.777-1.303-1.76-2.4-2.4-3.84C24.161,95.448,24.391,95.198,24.516,94.843z"/>
	<path style="fill-rule:evenodd;clip-rule:evenodd;" d="M22.596,95.803c0.619,0.021,0.252,1.028,1.2,0.72
		c-0.644,1.659,0.599,1.462,1.2,2.4c-0.956,0.78-2.735,1.092-3.84,0.48c0.228,1.132,1.163,1.557,2.4,1.68
		c0.257,1.167,3.17,2.995,3.6,5.52c0.425,2.498-0.749,6.298-2.88,6.24c-1.371-0.037-2.34-2.122-3.84-2.64
		c-0.587-3.667,0.369-7.05-0.72-10.8C21.541,99.068,21.131,96.499,22.596,95.803z M22.836,109.723c1.483-1.253,3.037-5.616,0.72-7.2
		C24.83,105.382,22.54,107.413,22.836,109.723z"/>
	<path style="fill-rule:evenodd;clip-rule:evenodd;" d="M25.236,139.243c-0.452,0.456-1.248,0.029-1.44-0.48
		c-0.892,0.381-2.764,0.815-2.16,1.92c0.884-0.236,0.942-1.297,2.16-1.2c0.532,1.042-0.704,1.836-0.96,3.36
		c-0.266,1.584,0.577,3.868-0.48,4.8c0.036,0.444,0.813,0.147,0.96,0.48c-0.809,0.732,0.194,0.866,0.24,2.16
		c0.077,2.136-2.531,3.854-1.68,6.48c-0.772-0.053-1.016,0.425-1.92,0.24c-0.472-0.888-1.028-1.692-1.92-2.16
		c0.668-1.146-0.329-2.553,0.24-3.6c0.458,0.502,0.774,1.146,0.96,1.92c1.099-0.637,1.147,0.828,1.92,1.2
		c0.774-1.739-1.51-2.486-0.96-4.8c0.75,0.45,0.93,1.47,1.68,1.92c0.9-2.128-2.366-3.356-1.68-5.28
		c0.769-0.74,0.846,0.564,1.68,0.48c-1.381-2.73-1.681-5.777,0.24-8.16C23.543,138.711,24.977,137.688,25.236,139.243z"/>
	<path style="fill-rule:evenodd;clip-rule:evenodd;" d="M69.396,188.443c0.442,1.318,0.096,3.424,0.48,4.8
		c-0.512,0.112-0.457-0.343-0.48-0.72c-1.766-0.086-3.298,0.062-4.8,0.24c-0.058-0.982-0.729-1.352-0.72-2.4
		c0.697-0.668,0.623,0.788,1.68,0.48C67.309,190.516,67.824,188.951,69.396,188.443z"/>
	<path style="fill-rule:evenodd;clip-rule:evenodd;" d="M68.436,224.203c-2.134-1.088-6.849-5.577-2.64-7.44
		c1.341-0.593,3.595-0.474,4.32,0.48c0.26,0.342,0.739,1.994,0.72,2.64C70.793,221.312,69.739,222.778,68.436,224.203z"/>
	<path style="fill-rule:evenodd;clip-rule:evenodd;" d="M40.596,236.443c-0.121,0.342-1.357,0.305-2.64,0
		c-0.265-0.062-0.3-0.572-0.72-0.72c-0.41-0.145-1.125,0.123-1.44,0c-1.187-0.463-2.188-1.493-3.36-1.44
		c0.904,1.817,4.835,2.684,7.44,3.6c-0.522,1.415-1.369,2.698-2.64,2.881c-3.513,0.503-5.034-4.231-6.24-6.721
		c2.186-0.854,4.168-1.912,6.96-2.16C39.586,232.653,40.41,234.229,40.596,236.443z"/>
	<path style="fill-rule:evenodd;clip-rule:evenodd;" d="M32.436,309.163c0.633,0.854,1.487,0.161,1.68,1.2
		c2.276-0.788,4.325,0.168,4.56,2.16c-1.033,0.233-1.042-1.067-1.68-0.96c-0.388,0.065-0.446,1.429-0.48-0.24
		c-1.217,0.056-1.513,2.066-2.88,1.2c-1.044,0.316-1.015,1.705-1.92,2.16c-0.106,0.453,0.326,1.446-0.48,1.199
		c0.381-1.802,0.682-3.134-0.72-4.079C30.912,310.679,31.858,310.105,32.436,309.163z"/>
	<path style="fill-rule:evenodd;clip-rule:evenodd;" d="M43.956,328.604c0.75,1.394-0.43,2.709-0.96,3.6
		c-2.453-0.839-1.715,3.337-4.08,3.36c-1.373-1.027-1.165-3.636-2.88-4.32C37.432,328.599,40.818,329.428,43.956,328.604z"/>
	<path style="fill-rule:evenodd;clip-rule:evenodd;" d="M36.996,333.644c0.846,4.505-4.221,3.751-4.32,1.2
		c-0.043-1.105,0.867-2.076,1.92-2.16C35.451,332.614,36.039,333.634,36.996,333.644z"/>
	<path style="fill-rule:evenodd;clip-rule:evenodd;" d="M61.956,339.403c-1.57,3.056-5.761,4.548-4.8,9.36
		c-1.14,0.507-2.537,1.878-3.84,1.439c0.442-1.848,1.539-4.015,0.48-6c0.181-0.699,0.57-1.189,0.96-1.68
		c-0.967-1.272-0.303-2.746-0.24-4.8c0.646-0.103,1.589-0.418,2.64-0.721C58.645,337.915,60.421,338.539,61.956,339.403z
		 M57.636,342.043c-0.509-0.931-0.708-2.171-1.68-2.64C55.68,340.217,56.503,342.603,57.636,342.043z"/>
	<path style="fill-rule:evenodd;clip-rule:evenodd;" d="M29.796,337.243c0.24,0,0.48,0,0.72,0c0.02,4.181-0.819,7.501-3.36,9.12
		c0.47,0.448,0.074,0.879,0,1.44c2.141-1.459,3.37-3.831,3.84-6.96c0.193-0.207,0.657-0.144,0.72-0.48
		c-0.215-0.905-0.208-2.033-0.48-2.88c0.666,0.65,1.64,1.534,2.16,2.399c1.026,1.71,2.238,4.671,0.24,6
		c-0.97,0.646-1.992,1.499-3.12,2.4c-1.831,1.463-2.611,1.516-4.8,1.92c-1.348-4.653,1.041-7.126,2.16-10.8
		c0.51-0.37,1.07-0.69,1.68-0.96C29.479,337.887,29.595,337.521,29.796,337.243z"/>
	<path style="fill-rule:evenodd;clip-rule:evenodd;" d="M58.596,345.883c-0.673,0.384,0.337,1.081,0,1.921
		c-1.592-0.933,0.02-5.105,1.68-4.32c-0.076-0.557,0.039-0.922,0.24-1.2c1.44,0,2.88,0,4.32,0c0.721,1.039,1.536,1.984,1.92,3.36
		c-0.553,0.577-0.773,0.366-1.68,0.239c0.757,0.929,2.101,1.706,3.12,1.681c0.268,1.172,0.881,1.999,1.68,2.64
		c-0.088,0.951,0.22,2.3-0.24,2.88c1.534,1.681,1.406,6.601,0,8.641c-3.538-0.463-5.666-2.335-8.16-3.841
		c-0.256-1.503-0.763-2.757-1.2-4.079c1.175-0.425,2.518-0.684,4.08-0.721c1.653,2.027,2.722,4.638,4.56,6.48
		c0.071-2.691-3.587-4.537-2.88-7.92c-0.218-0.657-0.841,0.426-1.2-0.24c-0.559-0.941,0.294-0.892,0.24-1.92
		c-1.641-0.008-3.178,2.077-4.8,2.88c-4.131-2.738,0.787-8.779,4.56-6.24c-0.447-2.633-4.662-0.555-5.76,0.48
		C58.564,346.716,58.619,346.261,58.596,345.883z"/>
	<path style="fill-rule:evenodd;clip-rule:evenodd;" d="M20.916,360.764c-0.143,1.057-1.126,1.273-1.44,2.159
		c-0.002,2.457,0.51,5.907-0.24,8.4c-1.627-1.649-2.477-4.545-1.92-7.68c0.046-1.006-1.178-0.742-0.96-1.92
		c0.659-0.608,1.676-0.488,2.64-0.24C19.829,361.583,20.328,360.113,20.916,360.764z"/>
	<path style="fill-rule:evenodd;clip-rule:evenodd;" d="M26.196,381.883c0.387-0.067,0.413,0.228,0.72,0.24
		c0.84,2.945-1.497,4.726-1.68,7.44c-1.062-0.219-1.474-1.087-2.4-1.44C23.15,385.237,25.295,384.183,26.196,381.883z"/>
	<path style="fill-rule:evenodd;clip-rule:evenodd;" d="M19.236,401.323c-2.038,0.404-3.211-2.045-5.28-2.4
		c0.058-0.422,0.413-0.547,0.96-0.479c-0.22-0.874-0.968-1.484-0.48-2.4c-0.326-0.714-1.083-0.996-1.68-1.439
		c1.735-1.163,3.172,1.881,3.84,3.359C17.539,399.021,18.829,399.73,19.236,401.323z"/>
	<path style="fill-rule:evenodd;clip-rule:evenodd;" d="M197.316,417.644c2.761,0.839,4.918,2.281,5.279,5.52
		c-0.082,0.638-0.63,0.811-1.199,0.96c2.225,3.406,1.795,8.738-1.92,10.32c-0.143,0.978-0.11,2.131-0.721,2.64
		c-1.105,0.18-0.563-1.378-0.72-2.16c-0.291-1.452-0.585-2.753,0.72-3.84c0.4,0,0.8,0,1.2,0c0.69-2.342-0.517-4.884-1.68-5.279
		c-0.265-1.225,0.907-1.013,0.96-1.921c0.779-0.139,1.116,0.164,1.68,0.24c-0.61-1.949-1.122-3.998-2.16-5.52
		C197.837,418.723,197.486,418.273,197.316,417.644z"/>
</g>
</svg>
